{
  "2016-11-01T15:00:00Z": [
    {
      "amount": 1.1,
      "organization": {
        "id": 1,
        "code": "PRS",
        "name": "Progress Rail Services",
        "description": "Test1131",
        "status": true,
        "countries": null,
        "addresses": null,
        "contacts": null
      }
    },
    {
      "amount": 2.2,
      "organization": {
        "id": 2,
        "code": "EMD",
        "name": "Electro-Motive Diesels",
        "description": "",
        "status": true,
        "countries": null,
        "addresses": null,
        "contacts": null
      }
    },
    {
      "amount": 3.3,
      "organization": {
        "id": 3,
        "code": "BHPB",
        "name": "BHPB",
        "description": "BHPB",
        "status": true,
        "countries": null,
        "addresses": null,
        "contacts": null
      }
    },
    {
      "amount": 4.4,
      "organization": {
        "id": 4,
        "code": "UPRR",
        "name": "Union Pacific",
        "description": "Union Pacific",
        "status": true,
        "countries": null,
        "addresses": null,
        "contacts": null
      }
    }
  ],
  "2016-11-01T16:00:00Z": [
    {
      "amount": 1.1,
      "organization": {
        "id": 1,
        "code": "PRS",
        "name": "Progress Rail Services",
        "description": "Test1131",
        "status": true,
        "countries": null,
        "addresses": null,
        "contacts": null
      }
    },
    {
      "amount": 2.2,
      "organization": {
        "id": 2,
        "code": "EMD",
        "name": "Electro-Motive Diesels",
        "description": "",
        "status": true,
        "countries": null,
        "addresses": null,
        "contacts": null
      }
    }
  ],
  "2016-11-01T17:00:00Z": [
    {
      "amount": 1.1,
      "organization": {
        "id": 1,
        "code": "PRS",
        "name": "Progress Rail Services",
        "description": "Test1131",
        "status": true,
        "countries": null,
        "addresses": null,
        "contacts": null
      }
    },
    {
      "amount": 2.2,
      "organization": {
        "id": 2,
        "code": "EMD",
        "name": "Electro-Motive Diesels",
        "description": "",
        "status": true,
        "countries": null,
        "addresses": null,
        "contacts": null
      }
    }
  ],
  "2016-11-01T18:00:00Z": [
    {
      "amount": 1.1,
      "organization": {
        "id": 1,
        "code": "PRS",
        "name": "Progress Rail Services",
        "description": "Test1131",
        "status": true,
        "countries": null,
        "addresses": null,
        "contacts": null
      }
    },
    {
      "amount": 2.2,
      "organization": {
        "id": 2,
        "code": "EMD",
        "name": "Electro-Motive Diesels",
        "description": "",
        "status": true,
        "countries": null,
        "addresses": null,
        "contacts": null
      }
    },
    {
      "amount": 3.3,
      "organization": {
        "id": 3,
        "code": "BHPB",
        "name": "BHPB",
        "description": "BHPB",
        "status": true,
        "countries": null,
        "addresses": null,
        "contacts": null
      }
    },
    {
      "amount": 4.4,
      "organization": {
        "id": 4,
        "code": "UPRR",
        "name": "Union Pacific",
        "description": "Union Pacific",
        "status": true,
        "countries": null,
        "addresses": null,
        "contacts": null
      }
    },
    {
      "amount": 5.5,
      "organization": {
        "id": 110,
        "code": "PR",
        "name": "Progress Rail",
        "description": "test description",
        "status": true,
        "countries": null,
        "addresses": null,
        "contacts": null
      }
    }
  ]
}