{
  "totalHits": 1,
  "pageHits": 1,
  "result": [
    {
      "id": 2,
      "userName": "danylo",
      "firstName": "Danyl1o",
      "lastName": "AHL1",
      "email": "asdasd@g.com",
      "address": "Bara str",
      "country": "Kambodga",
      "state": "Abra",
      "city": "Bamboo",
      "phoneNumber": "3095829582",
      "active": true,
      "createdDttm": "2016-11-09 14:49:45.0",
      "createdBy": "admin",
      "lastUpdatedDttm": "2016-11-09 17:46:52.0",
      "lastUpdatedBy": "admin"
    },
    {
      "id": 3,
      "userName": "danylo",
      "firstName": "Danyl1o22",
      "lastName": "AHL1",
      "email": "asdasd@g.com",
      "address": "Bara str",
      "country": "Kambodga",
      "state": "Abra",
      "city": "Bamboo",
      "phoneNumber": "3095829582",
      "active": true,
      "createdDttm": "2016-11-09 14:49:45.0",
      "createdBy": "admin",
      "lastUpdatedDttm": "2016-11-09 17:46:52.0",
      "lastUpdatedBy": "admin"
    }
  ]
}