[
 {
   "pipeline_processing_time_sum": 683,
   "ingestion_time_sum": 6208930,
   "storage_time_sum": 4034,
   "start_date": 1451896832
 },
 {
   "pipeline_processing_time_sum": 39,
   "ingestion_time_sum": 14487435,
   "storage_time_sum": 868,
   "start_date": 1501962240
 }
]
