{
    "id": 1,
    "userId": 1,
    "metric": "DISK_USAGE_INSTANCE_SUM_PERCENTAGE",
    "freeformValue": null,
    "numericValue": 0.04,
    "comparisonType": "GREATEREQUAL",
    "durationAmount": 1,
    "durationUnit": "DAYS",
    "alertName": "test1",
    "synced": false,
    "silenced": false
  }